<svg width="30" height="30" viewBox="0 0 30 30" fill="none" xmlns="http://www.w3.org/2000/svg">
<path d="M22.3874 6.24999H7.38742L9.01242 4.63749C9.2478 4.40211 9.38004 4.08286 9.38004 3.74999C9.38004 3.41711 9.2478 3.09787 9.01242 2.86249C8.77704 2.62711 8.4578 2.49487 8.12492 2.49487C7.79205 2.49487 7.4728 2.62711 7.23742 2.86249L3.48742 6.61249C3.37026 6.72869 3.27727 6.86694 3.21381 7.01927C3.15035 7.17159 3.11768 7.33497 3.11768 7.49999C3.11768 7.665 3.15035 7.82838 3.21381 7.98071C3.27727 8.13303 3.37026 8.27128 3.48742 8.38749L7.23742 12.1375C7.35363 12.2546 7.49188 12.3476 7.6442 12.4111C7.79653 12.4746 7.95991 12.5072 8.12492 12.5072C8.28994 12.5072 8.45332 12.4746 8.60564 12.4111C8.75797 12.3476 8.89622 12.2546 9.01242 12.1375C9.12958 12.0213 9.22258 11.883 9.28604 11.7307C9.3495 11.5784 9.38217 11.415 9.38217 11.25C9.38217 11.085 9.3495 10.9216 9.28604 10.7693C9.22258 10.6169 9.12958 10.4787 9.01242 10.3625L7.38742 8.74999H22.3874C22.6435 8.74502 22.8981 8.79054 23.1366 8.88397C23.3751 8.9774 23.5928 9.1169 23.7774 9.29451C23.9619 9.47211 24.1097 9.68433 24.2122 9.91905C24.3148 10.1538 24.37 10.4064 24.3749 10.6625V13.75C24.3749 14.0815 24.5066 14.3994 24.741 14.6339C24.9755 14.8683 25.2934 15 25.6249 15C25.9564 15 26.2744 14.8683 26.5088 14.6339C26.7432 14.3994 26.8749 14.0815 26.8749 13.75V10.6625C26.87 10.0781 26.7501 9.5004 26.5219 8.96238C26.2937 8.42435 25.9618 7.93654 25.5451 7.5268C25.1284 7.11706 24.635 6.79341 24.0932 6.57433C23.5515 6.35525 22.9718 6.24504 22.3874 6.24999ZM22.7624 17.8625C22.527 17.6271 22.2078 17.4949 21.8749 17.4949C21.542 17.4949 21.2228 17.6271 20.9874 17.8625C20.752 18.0979 20.6198 18.4171 20.6198 18.75C20.6198 19.0829 20.752 19.4021 20.9874 19.6375L22.6124 21.25H7.61242C7.35633 21.255 7.10177 21.2094 6.86328 21.116C6.62479 21.0226 6.40704 20.8831 6.22248 20.7055C6.03791 20.5279 5.89014 20.3156 5.78761 20.0809C5.68508 19.8462 5.6298 19.5936 5.62492 19.3375V16.25C5.62492 15.9185 5.49323 15.6005 5.25881 15.3661C5.02439 15.1317 4.70644 15 4.37492 15C4.0434 15 3.72546 15.1317 3.49104 15.3661C3.25662 15.6005 3.12492 15.9185 3.12492 16.25V19.3375C3.12983 19.9219 3.24979 20.4996 3.47797 21.0376C3.70614 21.5756 4.03806 22.0634 4.45477 22.4732C4.87148 22.8829 5.36481 23.2066 5.9066 23.4256C6.4484 23.6447 7.02804 23.7549 7.61242 23.75H22.6124L20.9874 25.3625C20.8703 25.4787 20.7773 25.6169 20.7138 25.7693C20.6503 25.9216 20.6177 26.085 20.6177 26.25C20.6177 26.415 20.6503 26.5784 20.7138 26.7307C20.7773 26.883 20.8703 27.0213 20.9874 27.1375C21.1036 27.2546 21.2419 27.3476 21.3942 27.4111C21.5465 27.4746 21.7099 27.5072 21.8749 27.5072C22.0399 27.5072 22.2033 27.4746 22.3556 27.4111C22.508 27.3476 22.6462 27.2546 22.7624 27.1375L26.5124 23.3875C26.6296 23.2713 26.7226 23.133 26.786 22.9807C26.8495 22.8284 26.8822 22.665 26.8822 22.5C26.8822 22.335 26.8495 22.1716 26.786 22.0193C26.7226 21.8669 26.6296 21.7287 26.5124 21.6125L22.7624 17.8625Z" fill="#005EB8"/>
</svg>
